{"current_page":1,"data":[{"id":11213,"title":"\u0412\u0421\u0415\u0420\u041e\u0421\u0421\u0418\u0419\u0421\u041a\u0418\u0419 \u0424\u041e\u0422\u041e\u041f\u0420\u041e\u0415\u041a\u0422 \u00ab\u0413\u0415\u0420\u041e\u0418 \u0420\u041e\u0421\u0421\u0418\u0418, \u041a\u0410\u041a\u0418\u041c\u0418 \u0418\u0425 \u041d\u0415 \u0412\u0418\u0414\u0415\u041b \u041d\u0418\u041a\u0422\u041e\u00bb \u041e\u0422\u041a\u0420\u042b\u0412\u0410\u0415\u0422\u0421\u042f \u0412 \u0410\u0411\u0410\u041a\u0410\u041d\u0415","description":"","created_at":"2020-09-09 15:18:52","updated_at":"2020-09-20 04:00:06","image_label":"","category_id":4,"sticky":0,"views":85,"published_at":"09.09.2020 15:18","cover":null,"category":{"id":4,"title":"\u0425\u0430\u043a\u0430\u0441\u0438\u044f","position":1},"tags":[]},{"id":11212,"title":"\u0417\u0430 \u0434\u0432\u0430 \u043c\u0435\u0441\u044f\u0446\u0430 \u043a\u043e\u043b\u0438\u0447\u0435\u0441\u0442\u0432\u043e \u0431\u0435\u0437\u0440\u0430\u0431\u043e\u0442\u043d\u044b\u0445 \u0432 \u0420\u043e\u0441\u0441\u0438\u0438 \u0443\u0432\u0435\u043b\u0438\u0447\u0438\u043b\u043e\u0441\u044c \u043d\u0430 700 \u0442\u044b\u0441. \u0447\u0435\u043b\u043e\u0432\u0435\u043a","description":"","created_at":"2020-05-07 11:22:13","updated_at":"2020-09-20 04:00:05","image_label":"","category_id":2,"sticky":0,"views":621,"published_at":"07.05.2020 11:22","cover":null,"category":{"id":2,"title":"\u0420\u043e\u0441\u0441\u0438\u044f","position":3},"tags":[]},{"id":11211,"title":"\u0411\u044b\u0432\u0448\u0438\u0439 \u0441\u0443\u043f\u0440\u0443\u0433 \u043f\u043e\u0434\u0430\u0435\u0442 \u0438\u0441\u043a\u0438 \u043f\u0440\u043e\u0442\u0438\u0432 \u041b\u043e\u043b\u0438\u0442\u044b","description":"","created_at":"2020-05-05 16:17:25","updated_at":"2020-09-20 04:00:06","image_label":"","category_id":2,"sticky":0,"views":614,"published_at":"05.05.2020 16:17","cover":{"id":11342,"name":"20191123030554-638723.jpg","extension":"jpg","full_path":"\/var\/www\/html\/news.re19.ru\/files\/54\/32\/1cb256e02890d0b3b2618450eacf.jpg","url":"\/files\/54\/32\/1cb256e02890d0b3b2618450eacf.jpg"},"category":{"id":2,"title":"\u0420\u043e\u0441\u0441\u0438\u044f","position":3},"tags":[{"id":251,"title":"\u0428\u043e\u0443\u0431\u0438\u0437\u043d\u0435\u0441","pivot":{"post_id":11211,"tag_id":251}}]},{"id":11210,"title":"\u0427\u0435\u0440\u043d\u043e\u0433\u043e\u0440\u0441\u043a\u0438\u0435 \u0431\u043e\u043b\u044c\u043d\u044b\u0435 \u043a\u043e\u0440\u043e\u043d\u0430\u0432\u0438\u0440\u0443\u0441\u043e\u043c \u043f\u043e\u043a\u0430\u0437\u0430\u043b\u0438, \u0432 \u043a\u0430\u043a\u0438\u0445 \u0443\u0441\u043b\u043e\u0432\u0438\u044f\u0445 \u043e\u043d\u0438 \u043b\u0435\u0436\u0430\u0442","description":"","created_at":"2020-05-04 04:57:43","updated_at":"2020-09-20 04:00:06","image_label":"https:\/\/www.instagram.com\/newskhakasia\/","category_id":4,"sticky":0,"views":651,"published_at":"04.05.2020 04:57","cover":{"id":11341,"name":"95143282_116951216665711_970583503389180297_n.jpg","extension":"jpg","full_path":"\/home\/seryak\/web\/news.re19.ru\/public_html\/public\/files\/c8\/6d\/1002de979937376a87837b566780.jpg","url":"\/files\/c8\/6d\/1002de979937376a87837b566780.jpg"},"category":{"id":4,"title":"\u0425\u0430\u043a\u0430\u0441\u0438\u044f","position":1},"tags":[{"id":487,"title":"\u041a\u043e\u0440\u043e\u043d\u0430\u0432\u0438\u0440\u0443\u0441","pivot":{"post_id":11210,"tag_id":487}},{"id":153,"title":"\u0427\u0435\u0440\u043d\u043e\u0433\u043e\u0440\u0441\u043a","pivot":{"post_id":11210,"tag_id":153}}]},{"id":11209,"title":"\u041c\u0438\u043d\u0437\u0434\u0440\u0430\u0432 \u0425\u0430\u043a\u0430\u0441\u0438\u0438 \u043f\u0440\u043e\u043a\u043e\u043c\u043c\u0435\u043d\u0442\u0438\u0440\u043e\u0432\u0430\u043b \u0432\u0438\u0434\u0435\u043e \u0441 \u0443\u0436\u0430\u0441\u043d\u044b\u043c\u0438 \u0443\u0441\u043b\u043e\u0432\u0438\u044f\u043c\u0438 \u0434\u043b\u044f \u0431\u043e\u043b\u044c\u043d\u044b\u0445 COVID","description":"","created_at":"2020-05-04 04:55:48","updated_at":"2020-09-20 04:00:06","image_label":"","category_id":4,"sticky":0,"views":633,"published_at":"04.05.2020 04:55","cover":{"id":11340,"name":"-.jpg","extension":"jpg","full_path":"\/home\/seryak\/web\/news.re19.ru\/public_html\/public\/files\/dd\/11\/5b8d34bed679f6b9dda7252c52e3.jpg","url":"\/files\/dd\/11\/5b8d34bed679f6b9dda7252c52e3.jpg"},"category":{"id":4,"title":"\u0425\u0430\u043a\u0430\u0441\u0438\u044f","position":1},"tags":[{"id":487,"title":"\u041a\u043e\u0440\u043e\u043d\u0430\u0432\u0438\u0440\u0443\u0441","pivot":{"post_id":11209,"tag_id":487}}]},{"id":11208,"title":"\u0421\u0430\u043c\u044b\u0439 \u0438\u0437\u0432\u0435\u0441\u0442\u043d\u044b\u0439 \u0438\u043d\u0441\u0442\u0438\u0442\u0443\u0442 \u0432 \u0423\u0445\u0430\u043d\u0438: \u0447\u0442\u043e \u043e\u043d \u0434\u0435\u043b\u0430\u0435\u0442 \u0438 \u043f\u043e\u0447\u0435\u043c\u0443 \u043c\u044b \u043d\u0438\u043a\u043e\u0433\u0434\u0430 \u043d\u0435 \u0443\u0437\u043d\u0430\u0435\u043c \u0432\u0441\u0435\u0439 \u043f\u0440\u0430\u0432\u0434\u044b","description":"\u0412\u043b\u0430\u0441\u0442\u0438 \u041a\u0438\u0442\u0430\u044f \u0441\u0442\u0430\u0440\u0430\u0442\u0435\u043b\u044c\u043d\u043e \u0443\u043d\u0438\u0447\u0442\u043e\u0436\u0430\u043b\u0438 \u0432\u0441\u0435 \u0434\u0430\u043d\u043d\u044b\u0435, \u043a\u0430\u0441\u0430\u044e\u0449\u0438\u0435\u0441\u044f \u043a\u043e\u0440\u043e\u043d\u0430\u0432\u0438\u0440\u0443\u0441\u043d\u043e\u0439 \u0438\u043d\u0444\u0435\u043a\u0446\u0438\u0438, \u043e\u043a\u0430\u0437\u044b\u0432\u0430\u043b\u0438 \u0434\u0430\u0432\u043b\u0435\u043d\u0438\u0435 \u043d\u0430 \u0432\u0440\u0430\u0447\u0435\u0439 \u0438 \u043e\u0442\u043a\u0430\u0437\u044b\u0432\u0430\u043b\u0438 ...","created_at":"2020-05-04 04:41:24","updated_at":"2020-09-20 04:00:06","image_label":"\u0428\u0438 \u0427\u0436\u044d\u043d\u043b\u0438 \u0432 \u0441\u0432\u043e\u0435\u0439 \u043b\u0430\u0431\u043e\u0440\u0430\u0442\u043e\u0440\u0438\u0438 \u0432 \u0423\u0445\u0430\u043d\u044c\u0441\u043a\u043e\u043c \u0438\u043d\u0441\u0442\u0438\u0442\u0443\u0442\u0435 \u0432\u0438\u0440\u0443\u0441\u043e\u043b\u043e\u0433\u0438\u0438","category_id":1,"sticky":0,"views":764,"published_at":"04.05.2020 04:41","cover":{"id":11339,"name":"5df3d5aad6246e32b038f36802afc6ff.png","extension":"png","full_path":"\/home\/seryak\/web\/news.re19.ru\/public_html\/public\/files\/e6\/6a\/9faf4699ec1a1b16a889ebfc01e7.png","url":"\/files\/e6\/6a\/9faf4699ec1a1b16a889ebfc01e7.png"},"category":{"id":1,"title":"\u041c\u0438\u0440","position":4},"tags":[{"id":487,"title":"\u041a\u043e\u0440\u043e\u043d\u0430\u0432\u0438\u0440\u0443\u0441","pivot":{"post_id":11208,"tag_id":487}},{"id":138,"title":"\u041a\u0438\u0442\u0430\u0439","pivot":{"post_id":11208,"tag_id":138}}]},{"id":11207,"title":"\u041b\u0435\u0442\u043e\u043c \u043f\u0440\u043e\u0433\u043d\u043e\u0437\u0438\u0440\u0443\u0435\u0442\u0441\u044f \u0441\u043f\u0430\u0434 \u044d\u043f\u0438\u0434\u0435\u043c\u0438\u0438 \u043a\u043e\u0440\u043e\u043d\u0430\u0432\u0438\u0440\u0443\u0441\u0430. \u041a\u0430\u043a \u043d\u0435 \u0434\u043e\u043f\u0443\u0441\u0442\u0438\u0442\u044c \u0432\u0442\u043e\u0440\u043e\u0439 \u0432\u043e\u043b\u043d\u044b?","description":"","created_at":"2020-05-03 09:16:40","updated_at":"2020-09-20 04:00:06","image_label":"\u0424\u043e\u0442\u043e: http:\/\/www.sobaka.ru","category_id":1,"sticky":0,"views":738,"published_at":"03.05.2020 09:16","cover":{"id":11336,"name":"unnamed.jpg","extension":"jpg","full_path":"\/home\/seryak\/web\/news.re19.ru\/public_html\/public\/files\/4f\/cd\/cadd7765b59307f0900ef422e413.jpg","url":"\/files\/4f\/cd\/cadd7765b59307f0900ef422e413.jpg"},"category":{"id":1,"title":"\u041c\u0438\u0440","position":4},"tags":[]},{"id":11206,"title":"\u041f\u0440\u043e\u0442\u0435\u0441\u0442\u044b \u043f\u0440\u043e\u0442\u0438\u0432 \u043a\u0430\u0440\u0430\u043d\u0442\u0438\u043d\u0430 \u043f\u0440\u043e\u0434\u043e\u043b\u0436\u0430\u044e\u0442\u0441\u044f \u0432 \u0421\u0428\u0410","description":"","created_at":"2020-05-03 04:10:27","updated_at":"2020-09-20 04:00:06","image_label":"\u0412\u043e\u043e\u0440\u0443\u0436\u0451\u043d\u043d\u044b\u0435 \u043f\u0440\u043e\u0442\u0435\u0441\u0442\u0443\u044e\u0449\u0438\u0435 \u0432 \u041c\u0438\u0447\u0438\u0433\u0430\u043d\u0435 AFP \u00a9 Jeff Kowalsky","category_id":1,"sticky":0,"views":736,"published_at":"03.05.2020 04:10","cover":{"id":11335,"name":"5eac09adae5ac92b90649f69.jpg","extension":"jpg","full_path":"\/home\/seryak\/web\/news.re19.ru\/public_html\/public\/files\/69\/f9\/a79f90130a6004ea13097ad4be03.jpg","url":"\/files\/69\/f9\/a79f90130a6004ea13097ad4be03.jpg"},"category":{"id":1,"title":"\u041c\u0438\u0440","position":4},"tags":[]},{"id":11205,"title":"\u0426\u0422\u0410\u041a \u0432\u043f\u0435\u0440\u0432\u044b\u0435 \u0441 12 \u0430\u043f\u0440\u0435\u043b\u044f \u043e\u043f\u0443\u0431\u043b\u0438\u043a\u043e\u0432\u0430\u043b\u0430 \u0444\u043e\u0442\u043e\u0433\u0440\u0430\u0444\u0438\u0438 \u041a\u0438\u043c \u0427\u0435\u043d \u042b\u043d\u0430 ","description":"","created_at":"2020-05-03 04:02:17","updated_at":"2020-09-20 04:00:06","image_label":"http:\/\/www.rodong.rep.kp","category_id":1,"sticky":0,"views":671,"published_at":"03.05.2020 04:02","cover":{"id":11334,"name":"2020-05-02-1-1876-11.jpg","extension":"jpg","full_path":"\/home\/seryak\/web\/news.re19.ru\/public_html\/public\/files\/70\/f9\/b1ed7bd9dec859a163d401e19e62.jpg","url":"\/files\/70\/f9\/b1ed7bd9dec859a163d401e19e62.jpg"},"category":{"id":1,"title":"\u041c\u0438\u0440","position":4},"tags":[{"id":488,"title":"\u041a\u0438\u043c \u0427\u0435\u043d \u042b\u043d","pivot":{"post_id":11205,"tag_id":488}}]},{"id":11204,"title":"\u041a\u043e\u0440\u043e\u043d\u0430\u0432\u0440\u0443\u0441 \u043f\u043e\u0434\u0442\u0432\u0435\u0440\u0436\u0434\u0451\u043d \u0443 \u0441\u043e\u0442\u0440\u0443\u0434\u043d\u0438\u0446\u044b \u0434\u0435\u0442\u0441\u043a\u043e\u0433\u043e \u0441\u0430\u0434\u0430 \u0432 \u0421\u0430\u044f\u043d\u043e\u0433\u043e\u0440\u0441\u043a\u0435","description":"","created_at":"2020-04-30 02:09:43","updated_at":"2020-09-20 04:00:06","image_label":"\u0424\u043e\u0442\u043e: lubertsyriamo.ru","category_id":4,"sticky":0,"views":662,"published_at":"30.04.2020 02:09","cover":{"id":11333,"name":"pagew06.jpg","extension":"jpg","full_path":"\/home\/seryak\/web\/news.re19.ru\/public_html\/public\/files\/eb\/d8\/da976bc1366e31b2cc848466ddbc.jpg","url":"\/files\/eb\/d8\/da976bc1366e31b2cc848466ddbc.jpg"},"category":{"id":4,"title":"\u0425\u0430\u043a\u0430\u0441\u0438\u044f","position":1},"tags":[{"id":487,"title":"\u041a\u043e\u0440\u043e\u043d\u0430\u0432\u0438\u0440\u0443\u0441","pivot":{"post_id":11204,"tag_id":487}}]},{"id":11203,"title":"\u0418\u0441\u043a\u0443\u0441\u0441\u0442\u0432\u0435\u043d\u043d\u044b\u0439 \u0438\u043d\u0442\u0435\u043b\u043b\u0435\u043a\u0442 \u0440\u0430\u0441\u0441\u0447\u0438\u0442\u0430\u043b \u043d\u0430\u0441\u0442\u0443\u043f\u043b\u0435\u043d\u0438\u0435 \u043f\u0438\u043a\u0430 \u044d\u043f\u0438\u0434\u0435\u043c\u0438\u0438 \u0432 \u0420\u043e\u0441\u0441\u0438\u0438","description":"","created_at":"2020-04-30 02:06:50","updated_at":"2020-09-20 04:00:06","image_label":"\u0424\u043e\u0442\u043e: ural56.ru","category_id":2,"sticky":0,"views":699,"published_at":"30.04.2020 02:06","cover":{"id":11332,"name":"fa54505935f7dc83670d473217cc0e8e.jpeg","extension":"jpeg","full_path":"\/home\/seryak\/web\/news.re19.ru\/public_html\/public\/files\/0c\/37\/882a4b82557bf2bd484ffd946b3f.jpeg","url":"\/files\/0c\/37\/882a4b82557bf2bd484ffd946b3f.jpeg"},"category":{"id":2,"title":"\u0420\u043e\u0441\u0441\u0438\u044f","position":3},"tags":[{"id":487,"title":"\u041a\u043e\u0440\u043e\u043d\u0430\u0432\u0438\u0440\u0443\u0441","pivot":{"post_id":11203,"tag_id":487}}]},{"id":11202,"title":"\u0427\u0438\u043d\u043e\u0432\u043d\u0438\u043a\u043e\u0432 \u0432 \u0418\u0440\u043a\u0443\u0442\u0441\u043a\u043e\u0439 \u043e\u0431\u043b\u0430\u0441\u0442\u0438 \u043f\u043e\u0434\u043e\u0437\u0440\u0435\u0432\u0430\u044e\u0442 \u0432 \u043f\u043e\u043f\u044b\u0442\u043a\u0435 \u043f\u043e\u0434\u0436\u043e\u0433\u0430 \u043b\u0435\u0441\u0430","description":"","created_at":"2020-04-30 01:59:27","updated_at":"2020-09-20 04:00:06","image_label":"\u0424\u043e\u0442\u043e: pikabu.ru","category_id":3,"sticky":0,"views":698,"published_at":"30.04.2020 01:59","cover":{"id":11331,"name":"1530014158138757287.jpg","extension":"jpg","full_path":"\/home\/seryak\/web\/news.re19.ru\/public_html\/public\/files\/d3\/63\/e0a5098a16d8945ade2a1bac4f60.jpg","url":"\/files\/d3\/63\/e0a5098a16d8945ade2a1bac4f60.jpg"},"category":{"id":3,"title":"\u0421\u0438\u0431\u0438\u0440\u044c","position":2},"tags":[{"id":484,"title":"\u041f\u043e\u0436\u0430\u0440\u044b","pivot":{"post_id":11202,"tag_id":484}}]},{"id":11201,"title":"\u00ab\u041e\u043f\u0430\u0441\u043d\u043e\u0441\u0442\u044c \u0441\u043f\u0430\u0434\u0451\u0442 \u0435\u0449\u0451 \u043d\u0435 \u0441\u043a\u043e\u0440\u043e\u00bb: \u043c\u043d\u0435\u043d\u0438\u0435 \u0432\u0438\u0440\u0443\u0441\u043e\u043b\u043e\u0433\u0430","description":"","created_at":"2020-04-29 02:05:21","updated_at":"2020-09-20 04:00:06","image_label":"Photo : Conferenceseries.com","category_id":2,"sticky":0,"views":733,"published_at":"29.04.2020 02:05","cover":{"id":11330,"name":"1044401600.jpg","extension":"jpg","full_path":"\/home\/seryak\/web\/news.re19.ru\/public_html\/public\/files\/58\/7d\/5278ae8fdf50033fac08d59c32ed.jpg","url":"\/files\/58\/7d\/5278ae8fdf50033fac08d59c32ed.jpg"},"category":{"id":2,"title":"\u0420\u043e\u0441\u0441\u0438\u044f","position":3},"tags":[{"id":487,"title":"\u041a\u043e\u0440\u043e\u043d\u0430\u0432\u0438\u0440\u0443\u0441","pivot":{"post_id":11201,"tag_id":487}}]},{"id":11200,"title":"\u0412 \u042f\u043a\u0443\u0442\u0438\u0438 \u0441\u043e\u0442\u043d\u0438 \u0440\u0430\u0431\u043e\u0447\u0438\u0445 \u0441 \u043c\u0435\u0441\u0442\u043e\u0440\u043e\u0436\u0434\u0435\u043d\u0438\u044f \u00ab\u0413\u0430\u0437\u043f\u0440\u043e\u043c\u0430\u00bb \u0443\u0441\u0442\u0440\u043e\u0438\u043b\u0438 \u043c\u0438\u0442\u0438\u043d\u0433 \u0438\u0437-\u0437\u0430 \u043a\u043e\u0440\u043e\u043d\u0430\u0432\u0438\u0440\u0443\u0441\u0430","description":"","created_at":"2020-04-29 01:52:15","updated_at":"2020-09-20 04:00:06","image_label":"","category_id":2,"sticky":0,"views":744,"published_at":"29.04.2020 01:52","cover":{"id":11329,"name":"ykts.jpg","extension":"jpg","full_path":"\/home\/seryak\/web\/news.re19.ru\/public_html\/public\/files\/a4\/11\/e4682fe39589a20cdd2d74a3dfc5.jpg","url":"\/files\/a4\/11\/e4682fe39589a20cdd2d74a3dfc5.jpg"},"category":{"id":2,"title":"\u0420\u043e\u0441\u0441\u0438\u044f","position":3},"tags":[]},{"id":11199,"title":"\u0413\u043b\u0430\u0432\u043d\u044b\u0435 \u0442\u0435\u0437\u0438\u0441\u044b \u0432\u044b\u0441\u0442\u0443\u043f\u043b\u0435\u043d\u0438\u044f \u0412. \u0412. \u041f\u0443\u0442\u0438\u043d\u0430 \u043e\u0442 28.04.2019","description":"","created_at":"2020-04-29 01:48:55","updated_at":"2020-09-20 04:00:06","image_label":"\u0424\u043e\u0442\u043e: www.e1.ru","category_id":2,"sticky":0,"views":697,"published_at":"29.04.2020 01:48","cover":{"id":11328,"name":"putin.jpg","extension":"jpg","full_path":"\/home\/seryak\/web\/news.re19.ru\/public_html\/public\/files\/83\/f9\/1e52bc70a9a1e832f48017ac5ceb.jpg","url":"\/files\/83\/f9\/1e52bc70a9a1e832f48017ac5ceb.jpg"},"category":{"id":2,"title":"\u0420\u043e\u0441\u0441\u0438\u044f","position":3},"tags":[{"id":487,"title":"\u041a\u043e\u0440\u043e\u043d\u0430\u0432\u0438\u0440\u0443\u0441","pivot":{"post_id":11199,"tag_id":487}}]}],"first_page_url":"\/?page=1","from":1,"last_page":744,"last_page_url":"\/?page=744","next_page_url":"\/?page=2","path":"\/","per_page":15,"prev_page_url":null,"to":15,"total":11157}